Labs/Week7/Lab7P1/L7P1/simulation/qsim/L7P1.msim.vcd
$comment
	File created using the following command:
		vcd file L7P1.msim.vcd -direction
$end
$date
	Mon Nov 02 16:15:43 2020
$end
$version
	ModelSim Version 10.1d
$end
$timescale
	1ps
$end
$scope module L7P1_vlg_vec_tst $end
$var reg 4 ! KEY [3:0] $end
$var reg 10 " SW [9:0] $end
$var wire 1 # LEDR [9] $end
$var wire 1 $ LEDR [8] $end
$var wire 1 % LEDR [7] $end
$var wire 1 & LEDR [6] $end
$var wire 1 ' LEDR [5] $end
$var wire 1 ( LEDR [4] $end
$var wire 1 ) LEDR [3] $end
$var wire 1 * LEDR [2] $end
$var wire 1 + LEDR [1] $end
$var wire 1 , LEDR [0] $end
$var wire 1 - sampler $end
$scope module i1 $end
$var wire 1 . gnd $end
$var wire 1 / vcc $end
$var wire 1 0 unknown $end
$var tri1 1 1 devclrn $end
$var tri1 1 2 devpor $end
$var tri1 1 3 devoe $end
$var wire 1 4 Q[0]~0_combout $end
$var wire 1 5 Gen1:2:Dffs|Q~0_combout $end
$var wire 1 6 Gen1:2:Dffs|Q~regout $end
$var wire 1 7 Gen1:3:Dffs|Q~0_combout $end
$var wire 1 8 Gen1:3:Dffs|Q~regout $end
$var wire 1 9 Gen1:4:Dffs|Q~0_combout $end
$var wire 1 : Gen1:4:Dffs|Q~regout $end
$var wire 1 ; Gen1:5:Dffs|Q~0_combout $end
$var wire 1 < Gen1:5:Dffs|Q~1_combout $end
$var wire 1 = Gen1:5:Dffs|Q~regout $end
$var wire 1 > Gen1:6:Dffs|Q~0_combout $end
$var wire 1 ? Gen1:6:Dffs|Q~regout $end
$var wire 1 @ Gen1:7:Dffs|Q~0_combout $end
$var wire 1 A Gen1:7:Dffs|Q~regout $end
$var wire 1 B Gen1:8:Dffs|Q~0_combout $end
$var wire 1 C Gen1:8:Dffs|Q~regout $end
$var wire 1 D Gen1:1:Dffs|Q~0_combout $end
$var wire 1 E Gen1:1:Dffs|Q~1_combout $end
$var wire 1 F Gen1:1:Dffs|Q~regout $end
$var wire 1 G z~0_combout $end
$var wire 1 H Q [8] $end
$var wire 1 I Q [7] $end
$var wire 1 J Q [6] $end
$var wire 1 K Q [5] $end
$var wire 1 L Q [4] $end
$var wire 1 M Q [3] $end
$var wire 1 N Q [2] $end
$var wire 1 O Q [1] $end
$var wire 1 P Q [0] $end
$var wire 1 Q KEY~combout [3] $end
$var wire 1 R KEY~combout [2] $end
$var wire 1 S KEY~combout [1] $end
$var wire 1 T KEY~combout [0] $end
$var wire 1 U SW~combout [9] $end
$var wire 1 V SW~combout [8] $end
$var wire 1 W SW~combout [7] $end
$var wire 1 X SW~combout [6] $end
$var wire 1 Y SW~combout [5] $end
$var wire 1 Z SW~combout [4] $end
$var wire 1 [ SW~combout [3] $end
$var wire 1 \ SW~combout [2] $end
$var wire 1 ] SW~combout [1] $end
$var wire 1 ^ SW~combout [0] $end
$upscope $end
$upscope $end
$enddefinitions $end
#0
$dumpvars
bx0 !
bx01 "
0,
0+
0*
0)
0(
0'
0&
0%
0$
0#
x-
0.
1/
x0
11
12
13
04
05
06
07
08
09
0:
0;
0<
0=
0>
0?
0@
0A
0B
0C
0D
0E
0F
0G
0P
zO
zN
zM
zL
zK
zJ
zI
zH
0T
zS
zR
zQ
1^
0]
z\
z[
zZ
zY
zX
zW
zV
zU
$end
#10000
bx1 !
1T
0-
#20000
bx0 !
0T
1-
#30000
bx1 !
1T
0-
#40000
bx00 "
bx0 !
0T
0^
1-
14
#50000
bx1 !
1T
0-
1P
1D
1;
1,
#60000
bx0 !
0T
1-
#70000
bx1 !
1T
0-
#80000
bx01 "
bx0 !
0T
1^
1-
1E
04
#90000
bx1 !
1T
0-
1F
0P
15
0D
1+
0,
0E
#100000
bx0 !
0T
1-
#110000
bx1 !
1T
0-
0F
16
0;
05
17
0+
1*
#111360
bx11 "
1]
1-
1<
07
#120000
bx0 !
0T
0-
#130000
bx1 !
1T
1-
1=
06
1D
1>
0<
1'
0*
#132096
bx01 "
0]
0-
1E
0>
#140000
bx0 !
0T
1-
#150000
bx1 !
1T
0-
1F
0=
1;
15
0D
1+
0'
0E
#160000
bx0 !
0T
1-
#170000
bx1 !
1T
0-
0F
16
0;
05
17
0+
1*
#180000
bx0 !
0T
1-
#190000
bx1 !
1T
0-
18
06
1G
1;
19
07
1)
0*
1#
#200000
bx0 !
0T
1-
#210000
bx1 !
1T
0-
1:
08
1(
0)
#210944
bx11 "
1]
1-
0G
1<
09
0#
#220000
bx0 !
0T
0-
#230000
bx1 !
1T
1-
1=
0:
1D
1>
0;
1'
0(
0<
#240000
bx0 !
0T
0-
#250000
bx1 !
1T
1-
1?
0=
1@
0>
1&
0'
#260000
bx0 !
0T
0-
#270000
bx1 !
1T
1-
1A
0?
1G
1B
0@
1%
0&
1#
#280000
bx0 !
0T
0-
#290000
bx1 !
1T
1-
1C
0A
0G
0D
0B
1$
0%
0#
#300000
bx0 !
0T
0-
#310000
bx1 !
1T
1-
0C
0$
#311040
bx01 "
0]
0-
#320000
bx0 !
0T
1-
#330000
bx1 !
1T
0-
#331264
bx11 "
1]
1-
#340000
bx0 !
0T
0-
#350000
bx1 !
1T
1-
#360000
bx0 !
0T
0-
#370000
bx1 !
1T
1-
#370432
bx01 "
0]
0-
#380000
bx0 !
0T
1-
#390000
bx1 !
1T
0-
#393472
bx00 "
0^
1-
14
#400000
bx0 !
0T
0-
#410000
bx1 !
1T
1-
1P
1D
1;
1,
#420000
bx0 !
0T
0-
#430000
bx1 !
1T
1-
#435712
bx01 "
1^
0-
1E
04
#440000
bx0 !
0T
1-
#450000
bx1 !
1T
0-
1F
0P
15
0D
1+
0,
0E
#460000
bx0 !
0T
1-
#470000
bx1 !
1T
0-
0F
16
0;
05
17
0+
1*
#480000
bx0 !
0T
1-
#490000
bx1 !
1T
0-
18
06
1G
1;
19
07
1)
0*
1#
#500000
bx0 !
0T
1-
#510000
bx1 !
1T
0-
1:
08
1(
0)
#520000
bx0 !
0T
1-
#530000
bx1 !
1T
0-
#540000
bx0 !
0T
1-
#550000
bx1 !
1T
0-
#560000
bx0 !
0T
1-
#570000
bx1 !
1T
0-
#580000
bx0 !
0T
1-
#590000
bx1 !
1T
0-
#600000
bx0 !
0T
1-
#610000
bx1 !
1T
0-
#620000
bx0 !
0T
1-
#630000
bx1 !
1T
0-
#640000
bx0 !
0T
1-
#650000
bx1 !
1T
0-
#660000
bx0 !
0T
1-
#670000
bx1 !
1T
0-
#680000
bx0 !
0T
1-
#690000
bx1 !
1T
0-
#700000
bx0 !
0T
1-
#710000
bx1 !
1T
0-
#720000
bx0 !
0T
1-
#730000
bx1 !
1T
0-
#740000
bx0 !
0T
1-
#750000
bx1 !
1T
0-
#760000
bx0 !
0T
1-
#770000
bx1 !
1T
0-
#780000
bx0 !
0T
1-
#790000
bx1 !
1T
0-
#800000
bx0 !
0T
1-
#810000
bx1 !
1T
0-
#820000
bx0 !
0T
1-
#830000
bx1 !
1T
0-
#840000
bx0 !
0T
1-
#850000
bx1 !
1T
0-
#860000
bx0 !
0T
1-
#870000
bx1 !
1T
0-
#880000
bx0 !
0T
1-
#890000
bx1 !
1T
0-
#900000
bx0 !
0T
1-
#910000
bx1 !
1T
0-
#920000
bx0 !
0T
1-
#930000
bx1 !
1T
0-
#940000
bx0 !
0T
1-
#950000
bx1 !
1T
0-
#960000
bx0 !
0T
1-
#970000
bx1 !
1T
0-
#980000
bx0 !
0T
1-
#990000
bx1 !
1T
0-
