Labs/Week 5/Lab 1/L4P11/simulation/qsim/L4P11.msim.vcd
$comment
	File created using the following command:
		vcd file L4P11.msim.vcd -direction
$end
$date
	Sun Oct 18 21:33:20 2020
$end
$version
	ModelSim Version 10.1d
$end
$timescale
	1ps
$end
$scope module L4P11_vlg_vec_tst $end
$var reg 1 ! Clearn $end
$var reg 1 " Clk $end
$var reg 1 # E $end
$var wire 1 $ Q [7] $end
$var wire 1 % Q [6] $end
$var wire 1 & Q [5] $end
$var wire 1 ' Q [4] $end
$var wire 1 ( Q [3] $end
$var wire 1 ) Q [2] $end
$var wire 1 * Q [1] $end
$var wire 1 + Q [0] $end
$var wire 1 , sampler $end
$scope module i1 $end
$var wire 1 - gnd $end
$var wire 1 . vcc $end
$var wire 1 / unknown $end
$var tri1 1 0 devclrn $end
$var tri1 1 1 devpor $end
$var tri1 1 2 devoe $end
$var wire 1 3 Clk~combout $end
$var wire 1 4 Clk~clkctrl_outclk $end
$var wire 1 5 E~combout $end
$var wire 1 6 T1|Q~0_combout $end
$var wire 1 7 Clearn~combout $end
$var wire 1 8 Clearn~clkctrl_outclk $end
$var wire 1 9 T1|Q~regout $end
$var wire 1 : T2|Q~0_combout $end
$var wire 1 ; T2|Q~regout $end
$var wire 1 < T3|Q~0_combout $end
$var wire 1 = T3|Q~regout $end
$var wire 1 > T4|Q~0_combout $end
$var wire 1 ? T4|Q~regout $end
$var wire 1 @ T5|Q~0_combout $end
$var wire 1 A T5|Q~regout $end
$var wire 1 B T [8] $end
$var wire 1 C T [7] $end
$var wire 1 D T [6] $end
$var wire 1 E T [5] $end
$var wire 1 F T [4] $end
$var wire 1 G T [3] $end
$var wire 1 H T [2] $end
$var wire 1 I T [1] $end
$var wire 1 J T [0] $end
$upscope $end
$upscope $end
$enddefinitions $end
#0
$dumpvars
1!
0"
0#
0+
0*
0)
0(
0'
0&
0%
0$
x,
0-
1.
x/
10
11
12
03
04
05
06
17
18
09
0:
0;
0<
0=
0>
0?
0@
0A
zJ
zI
zH
0G
zF
zE
zD
zC
zB
$end
#20000
1"
13
14
0,
#40000
1#
0"
15
03
04
1,
16
#60000
1"
13
14
0,
19
1:
06
1+
#80000
0"
03
04
1,
#100000
1"
13
14
0,
1;
09
16
1*
0+
#120000
0!
0"
07
03
04
08
1,
0;
0:
0*
#140000
1"
13
14
0,
#160000
0"
03
04
1,
#180000
1"
13
14
0,
#200000
1!
0"
17
03
04
18
1,
#220000
1"
13
14
0,
19
1:
06
1+
#240000
0"
03
04
1,
#260000
1"
13
14
0,
1;
09
16
1*
0+
#280000
0"
03
04
1,
#300000
1"
13
14
0,
19
1<
0:
06
1+
#320000
0#
0"
05
03
04
1,
0<
1:
16
#340000
1"
13
14
0,
#360000
0"
03
04
1,
#380000
1"
13
14
0,
#400000
0"
03
04
1,
#420000
1"
13
14
0,
#440000
0"
03
04
1,
#460000
1"
13
14
0,
#480000
1#
0"
15
03
04
1,
1<
0:
06
#500000
1"
13
14
0,
1=
0;
09
16
1)
0*
0+
#520000
0"
03
04
1,
#540000
1"
13
14
0,
19
1:
06
1+
#560000
0"
03
04
1,
#580000
1"
13
14
0,
1;
09
16
1*
0+
#600000
0#
0"
05
03
04
1,
06
#620000
1"
13
14
0,
#640000
0"
03
04
1,
#660000
1"
13
14
0,
#680000
0"
03
04
1,
#700000
1"
13
14
0,
#720000
1#
0"
15
03
04
1,
16
#740000
1"
13
14
0,
19
1G
0<
0:
06
1+
1>
#760000
0"
03
04
1,
#780000
1"
13
14
0,
1?
0=
0;
09
1@
0>
0G
16
1(
0)
0*
0+
0@
1>
#800000
0"
03
04
1,
#820000
1"
13
14
0,
19
1:
06
1+
#840000
0"
03
04
1,
#860000
1"
13
14
0,
1;
09
16
1*
0+
#880000
0"
03
04
1,
#900000
1"
13
14
0,
19
1<
0:
06
1+
#920000
0#
0"
05
03
04
1,
0<
1:
16
#940000
1"
13
14
0,
#960000
0"
03
04
1,
#980000
1"
13
14
0,
