Labs/Week 10/L11P2/L11P2/simulation/qsim/L11P2.msim.vcd
$comment
	File created using the following command:
		vcd file L11P2.msim.vcd -direction
$end
$date
	Mon Nov 23 21:57:37 2020
$end
$version
	ModelSim Version 10.1d
$end
$timescale
	1ps
$end
$scope module L11P2_vlg_vec_tst $end
$var reg 1 ! Clock $end
$var reg 8 " Data [7:0] $end
$var reg 1 # Resetn $end
$var reg 1 $ s $end
$var wire 1 % Addr [4] $end
$var wire 1 & Addr [3] $end
$var wire 1 ' Addr [2] $end
$var wire 1 ( Addr [1] $end
$var wire 1 ) Addr [0] $end
$var wire 1 * Done $end
$var wire 1 + Found $end
$var wire 1 , sampler $end
$scope module i1 $end
$var wire 1 - gnd $end
$var wire 1 . vcc $end
$var wire 1 / unknown $end
$var tri1 1 0 devclrn $end
$var tri1 1 1 devpor $end
$var tri1 1 2 devoe $end
$var wire 1 3 Add0~2_combout $end
$var wire 1 4 Add0~4_combout $end
$var wire 1 5 Add0~6_combout $end
$var wire 1 6 Add2~4_combout $end
$var wire 1 7 Add1~0_combout $end
$var wire 1 8 Add1~2_combout $end
$var wire 1 9 y.s1~3_combout $end
$var wire 1 : y~12_combout $end
$var wire 1 ; Equal0~3_combout $end
$var wire 1 < loaddata|Q~4_combout $end
$var wire 1 = loaddata|Q~6_combout $end
$var wire 1 > Add2~14_combout $end
$var wire 1 ? Selector11~0_combout $end
$var wire 1 @ Selector0~0_combout $end
$var wire 1 A Selector2~0_combout $end
$var wire 1 B y~21_combout $end
$var wire 1 C Resetn~combout $end
$var wire 1 D Resetn~clkctrl_outclk $end
$var wire 1 E y.s3_2~regout $end
$var wire 1 F y~19_combout $end
$var wire 1 G y.s3_3~regout $end
$var wire 1 H y.s1~1_combout $end
$var wire 1 I loaddata|Q~2_combout $end
$var wire 1 J s~combout $end
$var wire 1 K y~14_combout $end
$var wire 1 L y~20_combout $end
$var wire 1 M y.s2~regout $end
$var wire 1 N loaddata|Q~8_combout $end
$var wire 1 O Clock~combout $end
$var wire 1 P ~GND~combout $end
$var wire 1 Q Add2~1 $end
$var wire 1 R Add2~3 $end
$var wire 1 S Add2~5 $end
$var wire 1 T Add2~6_combout $end
$var wire 1 U Add2~13_combout $end
$var wire 1 V Add1~1 $end
$var wire 1 W Add1~3 $end
$var wire 1 X Add1~4_combout $end
$var wire 1 Y Selector7~0_combout $end
$var wire 1 Z Selector1~0_combout $end
$var wire 1 [ Selector1~0clkctrl_outclk $end
$var wire 1 \ Add0~1_cout $end
$var wire 1 ] Add0~3 $end
$var wire 1 ^ Add0~5 $end
$var wire 1 _ Add0~7 $end
$var wire 1 ` Add0~9 $end
$var wire 1 a Add0~10_combout $end
$var wire 1 b Add2~7 $end
$var wire 1 c Add2~8_combout $end
$var wire 1 d Add2~17_combout $end
$var wire 1 e Add0~8_combout $end
$var wire 1 f loaddata|Q~7_combout $end
$var wire 1 g loaddata|Q~0_combout $end
$var wire 1 h LessThan1~1_cout $end
$var wire 1 i LessThan1~3_cout $end
$var wire 1 j LessThan1~5_cout $end
$var wire 1 k LessThan1~7_cout $end
$var wire 1 l LessThan1~9_cout $end
$var wire 1 m LessThan1~11_cout $end
$var wire 1 n LessThan1~13_cout $end
$var wire 1 o LessThan1~14_combout $end
$var wire 1 p Selector13~0_combout $end
$var wire 1 q Selector13~0clkctrl_outclk $end
$var wire 1 r Add2~9 $end
$var wire 1 s Add2~10_combout $end
$var wire 1 t Add2~12_combout $end
$var wire 1 u Add2~0_combout $end
$var wire 1 v Add2~16_combout $end
$var wire 1 w Add2~2_combout $end
$var wire 1 x Add2~15_combout $end
$var wire 1 y Equal1~0_combout $end
$var wire 1 z Add1~5 $end
$var wire 1 { Add1~7 $end
$var wire 1 | Add1~9 $end
$var wire 1 } Add1~10_combout $end
$var wire 1 ~ Selector10~0_combout $end
$var wire 1 !! Add1~6_combout $end
$var wire 1 "! Selector8~0_combout $end
$var wire 1 #! LessThan0~1_cout $end
$var wire 1 $! LessThan0~3_cout $end
$var wire 1 %! LessThan0~5_cout $end
$var wire 1 &! LessThan0~7_cout $end
$var wire 1 '! LessThan0~9_cout $end
$var wire 1 (! LessThan0~10_combout $end
$var wire 1 )! Add1~8_combout $end
$var wire 1 *! Selector9~0_combout $end
$var wire 1 +! Equal2~0_combout $end
$var wire 1 ,! y_next~0_combout $end
$var wire 1 -! y_next~1_combout $end
$var wire 1 .! y~15_combout $end
$var wire 1 /! y.s6~regout $end
$var wire 1 0! Done~0_combout $end
$var wire 1 1! y~17_combout $end
$var wire 1 2! y.s1~regout $end
$var wire 1 3! loaddata|Q[7]~1_combout $end
$var wire 1 4! Equal0~0_combout $end
$var wire 1 5! loaddata|Q~3_combout $end
$var wire 1 6! Equal0~1_combout $end
$var wire 1 7! loaddata|Q~5_combout $end
$var wire 1 8! Equal0~2_combout $end
$var wire 1 9! Equal0~4_combout $end
$var wire 1 :! y~18_combout $end
$var wire 1 ;! y.s5~regout $end
$var wire 1 <! y.s1~0_combout $end
$var wire 1 =! y.s1~2_combout $end
$var wire 1 >! y.s1~4_combout $end
$var wire 1 ?! y~16_combout $end
$var wire 1 @! y.s3_1~regout $end
$var wire 1 A! y.s3_1~clkctrl_outclk $end
$var wire 1 B! Clock~clkctrl_outclk $end
$var wire 1 C! y~13_combout $end
$var wire 1 D! y.s4~regout $end
$var wire 1 E! guess [4] $end
$var wire 1 F! guess [3] $end
$var wire 1 G! guess [2] $end
$var wire 1 H! guess [1] $end
$var wire 1 I! guess [0] $end
$var wire 1 J! mem_blk|altsyncram_component|auto_generated|q_a [7] $end
$var wire 1 K! mem_blk|altsyncram_component|auto_generated|q_a [6] $end
$var wire 1 L! mem_blk|altsyncram_component|auto_generated|q_a [5] $end
$var wire 1 M! mem_blk|altsyncram_component|auto_generated|q_a [4] $end
$var wire 1 N! mem_blk|altsyncram_component|auto_generated|q_a [3] $end
$var wire 1 O! mem_blk|altsyncram_component|auto_generated|q_a [2] $end
$var wire 1 P! mem_blk|altsyncram_component|auto_generated|q_a [1] $end
$var wire 1 Q! mem_blk|altsyncram_component|auto_generated|q_a [0] $end
$var wire 1 R! Data~combout [7] $end
$var wire 1 S! Data~combout [6] $end
$var wire 1 T! Data~combout [5] $end
$var wire 1 U! Data~combout [4] $end
$var wire 1 V! Data~combout [3] $end
$var wire 1 W! Data~combout [2] $end
$var wire 1 X! Data~combout [1] $end
$var wire 1 Y! Data~combout [0] $end
$var wire 1 Z! max [5] $end
$var wire 1 [! max [4] $end
$var wire 1 \! max [3] $end
$var wire 1 ]! max [2] $end
$var wire 1 ^! max [1] $end
$var wire 1 _! max [0] $end
$var wire 1 `! loaddata|Q [7] $end
$var wire 1 a! loaddata|Q [6] $end
$var wire 1 b! loaddata|Q [5] $end
$var wire 1 c! loaddata|Q [4] $end
$var wire 1 d! loaddata|Q [3] $end
$var wire 1 e! loaddata|Q [2] $end
$var wire 1 f! loaddata|Q [1] $end
$var wire 1 g! loaddata|Q [0] $end
$var wire 1 h! min [5] $end
$var wire 1 i! min [4] $end
$var wire 1 j! min [3] $end
$var wire 1 k! min [2] $end
$var wire 1 l! min [1] $end
$var wire 1 m! min [0] $end
$var wire 1 n! sum [5] $end
$var wire 1 o! sum [4] $end
$var wire 1 p! sum [3] $end
$var wire 1 q! sum [2] $end
$var wire 1 r! sum [1] $end
$var wire 1 s! sum [0] $end
$var wire 1 t! mem_blk|altsyncram_component|auto_generated|ram_block1a1_PORTADATAOUT_bus [6] $end
$var wire 1 u! mem_blk|altsyncram_component|auto_generated|ram_block1a1_PORTADATAOUT_bus [5] $end
$var wire 1 v! mem_blk|altsyncram_component|auto_generated|ram_block1a1_PORTADATAOUT_bus [4] $end
$var wire 1 w! mem_blk|altsyncram_component|auto_generated|ram_block1a1_PORTADATAOUT_bus [3] $end
$var wire 1 x! mem_blk|altsyncram_component|auto_generated|ram_block1a1_PORTADATAOUT_bus [2] $end
$var wire 1 y! mem_blk|altsyncram_component|auto_generated|ram_block1a1_PORTADATAOUT_bus [1] $end
$var wire 1 z! mem_blk|altsyncram_component|auto_generated|ram_block1a1_PORTADATAOUT_bus [0] $end
$var wire 1 {! mem_blk|altsyncram_component|auto_generated|ram_block1a0_PORTADATAOUT_bus [0] $end
$upscope $end
$upscope $end
$enddefinitions $end
#0
$dumpvars
1!
b0 "
0#
0$
x)
x(
x'
x&
x%
0*
0+
x,
0-
1.
x/
10
11
12
03
04
05
x6
x7
x8
19
0:
1;
0<
0=
0>
1?
0@
0A
0B
0C
0D
0E
0F
0G
0H
0I
0J
0K
0L
0M
0N
1O
0P
xQ
xR
xS
xT
0U
xV
xW
xX
0Y
1Z
1[
0\
1]
0^
1_
0`
0a
xb
xc
0d
0e
0f
0g
0h
1i
0j
1k
0l
1m
0n
0o
1p
1q
xr
xs
0t
xu
0v
xw
0x
1y
xz
x{
x|
x}
0~
x!!
0"!
0#!
1$!
0%!
1&!
0'!
0(!
x)!
0*!
0+!
0,!
0-!
0.!
0/!
10!
01!
02!
13!
14!
05!
16!
07!
18!
19!
0:!
0;!
1<!
0=!
1>!
0?!
0@!
0A!
1B!
0C!
0D!
xI!
xH!
xG!
xF!
xE!
0Q!
0P!
0O!
0N!
0M!
0L!
0K!
0J!
0Y!
0X!
0W!
0V!
0U!
0T!
0S!
0R!
0_!
0^!
0]!
0\!
0[!
0Z!
0g!
0f!
0e!
0d!
0c!
0b!
0a!
0`!
0m!
0l!
0k!
0j!
0i!
0h!
zs!
xr!
xq!
xp!
xo!
xn!
0z!
0y!
0x!
0w!
0v!
0u!
0t!
0{!
$end
#1000
0!
0O
0B!
0,
#2000
1!
1O
1B!
1,
#2901
1#
1C
1D
0,
#3000
0!
0O
0B!
1,
#4000
1!
1O
1B!
0,
xz!
xy!
xx!
xw!
xv!
xu!
xt!
x{!
xP!
xO!
xN!
xM!
xL!
xK!
xJ!
xQ!
x4!
xi
x6!
xj
xk
x8!
xl
xm
xn
x;
xo
xh
x9!
#5000
0!
0O
0B!
1,
#6000
1$
1!
1J
1O
1B!
0,
11!
1L
#7000
0!
0O
0B!
1,
#8000
1!
1O
1B!
0,
12!
1M
1=!
0<!
03!
0L
1?!
1*!
1"!
1Y
1H
1A
1@
09
1[!
1\!
1]!
1_!
1^!
1+!
1e
15
14
13
#9000
0!
0O
0B!
1,
#10000
1!
1O
1B!
0,
0M
1@!
1A!
0?!
0*!
0"!
0p
0Z
0Y
0A
0@
0?
1B
1r!
1o!
0n!
1p!
1q!
0[
0q
1I!
1F!
0E!
1G!
1H!
1Q
0u
1V
07
0{
0r
1z
0W
1)
1&
0%
1'
1(
0R
0w
18
1|
0)!
0s
1!!
1X
1S
06
1}
0b
0T
1c
#11000
0!
0O
0B!
1,
#12000
1!
1O
1B!
0,
0@!
1E
0A!
0B
1F
#13000
0!
0O
0B!
1,
#14000
1!
1O
1B!
0,
1G
0E
1z!
1y!
1x!
1w!
0v!
0u!
0t!
1{!
1P!
1O!
1N!
1M!
0L!
0K!
0J!
1Q!
xC!
x:!
0F
04!
0i
06!
1j
0k
08!
1l
1;
1h
09!
0m
0C!
1:!
1n
1o
#15000
0!
0O
0B!
1,
#16000
1!
1O
1B!
0,
1;!
0G
1?!
0=!
1<!
1"!
1d
1Z
1Y
1@
1?
0:!
0H
19
1[
0[!
0_!
0+!
0e
#17000
0!
0O
0B!
1,
#18000
1!
1O
1B!
0,
0;!
1@!
1A!
0?!
1=!
0<!
0"!
0d
0Z
0Y
0@
0?
1H
1B
09
0o!
0[
0F!
0!!
1b
1T
0&
0c
#19000
0!
0O
0B!
1,
#20000
1!
1O
1B!
0,
0@!
1E
0A!
0B
1F
#21000
0!
0O
0B!
1,
#22000
1!
1O
1B!
0,
1G
0E
0w!
0M!
1:!
0F
18!
#23000
0!
0O
0B!
1,
#24000
1!
1O
1B!
0,
1;!
0G
1?!
0=!
1<!
1Z
1Y
1U
1@
1?
0:!
0H
19
1[
0\!
05
#25000
0!
0O
0B!
1,
#26000
1!
1O
1B!
0,
0;!
1@!
1A!
0?!
1=!
0<!
0Z
0Y
0U
0@
0?
1H
1B
09
0p!
0[
0G!
0X
0S
16
0'
0T
#27000
0!
0O
0B!
1,
#28000
1!
1O
1B!
0,
0@!
1E
0A!
0B
1F
#29000
0!
0O
0B!
1,
#30000
1!
1O
1B!
0,
1G
0E
0x!
0N!
1:!
0F
#31000
0!
0O
0B!
1,
#32000
1!
1O
1B!
0,
1;!
0G
1?!
0=!
1<!
1Z
1@
1?
1>
0:!
0H
19
1[
0]!
04
#33000
0!
0O
0B!
1,
#34000
1!
1O
1B!
0,
0;!
1@!
1A!
0?!
1=!
0<!
0Z
0@
0?
0>
1H
1B
09
0q!
0[
0H!
1R
1w
08
0(
06
#35000
0!
0O
0B!
1,
#36000
1!
1O
1B!
0,
0@!
1E
0A!
0B
1F
#37000
0!
0O
0B!
1,
#38000
1!
1O
1B!
0,
1G
0E
0y!
0O!
1:!
0F
16!
#39000
0!
0O
0B!
1,
#40000
1!
1O
1B!
0,
1;!
0G
1?!
0=!
1<!
1x
1Z
1?
0:!
0H
19
1[
0^!
03
#41000
0!
0O
0B!
1,
#42000
1!
1O
1B!
0,
0;!
1@!
1A!
0?!
1=!
0<!
0x
0Z
0?
1H
1B
09
0r!
0[
0I!
0Q
1u
0V
17
0)
0w
1W
18
0z
1X
1{
1!!
0|
1)!
0}
#43000
0!
0O
0B!
1,
#44000
1!
1O
1B!
0,
0@!
1E
0A!
0B
1F
#45000
0!
0O
0B!
1,
#46000
1!
1O
1B!
0,
1G
0E
0z!
0P!
1:!
0F
#47000
0!
0O
0B!
1,
#48000
1!
1O
1B!
0,
1;!
0G
1?!
0=!
1<!
1*!
1"!
1~
1v
1Z
1Y
1A
1@
1?
0:!
0H
19
1[
1[!
1\!
1Z!
1]!
1_!
1^!
1+!
1e
15
1a
14
13
1,!
1-!
0?!
1.!
#49000
0!
0O
0B!
1,
#50000
1!
1O
1B!
0,
0;!
1/!
0.!
0*!
0"!
0~
0v
0Z
0Y
0A
0@
0?
00!
1K
0[
1.!
1*
#51000
0!
0O
0B!
1,
#52000
1!
1O
1B!
0,
#53000
0!
0O
0B!
1,
#54000
1!
1O
1B!
0,
#55000
0!
0O
0B!
1,
#56000
1!
1O
1B!
0,
#57000
0!
0O
0B!
1,
#58000
1!
1O
1B!
0,
#59000
0!
0O
0B!
1,
#60000
1!
1O
1B!
0,
#61000
0!
0O
0B!
1,
#62000
1!
1O
1B!
0,
#63000
0!
0O
0B!
1,
#64000
1!
1O
1B!
0,
#65000
0!
0O
0B!
1,
#66000
1!
1O
1B!
0,
#67000
0!
0O
0B!
1,
#68000
1!
1O
1B!
0,
#69000
0!
0O
0B!
1,
#70000
1!
1O
1B!
0,
#71000
0!
0O
0B!
1,
#72000
1!
1O
1B!
0,
#73000
0!
0O
0B!
1,
#74000
1!
1O
1B!
0,
#75000
0!
0O
0B!
1,
#76000
1!
1O
1B!
0,
#77000
0!
0O
0B!
1,
#78000
1!
1O
1B!
0,
#79000
0!
0O
0B!
1,
#80000
1!
1O
1B!
0,
#81000
0!
0O
0B!
1,
#82000
1!
1O
1B!
0,
#83000
0!
0O
0B!
1,
#84000
1!
1O
1B!
0,
#85000
0!
0O
0B!
1,
#86000
1!
1O
1B!
0,
#87000
0!
0O
0B!
1,
#88000
1!
1O
1B!
0,
#89000
0!
0O
0B!
1,
#90000
1!
1O
1B!
0,
#91000
0!
0O
0B!
1,
#92000
1!
1O
1B!
0,
#93000
0!
0O
0B!
1,
#94000
1!
1O
1B!
0,
#95000
0!
0O
0B!
1,
#96000
0$
1!
0J
1O
1B!
0,
01!
0K
0.!
#97000
0!
0O
0B!
1,
#98000
1!
1O
1B!
0,
02!
0/!
13!
1p
1Z
1?
10!
1[
1q
0Z!
0[!
0\!
0_!
0^!
0]!
0*
0,!
0a
0+!
0e
05
03
04
0-!
#99000
0!
0O
0B!
1,
#100000
b1 "
1!
1Y!
1O
1B!
0,
1g
#101000
0!
0O
0B!
1,
#102000
1!
1O
1B!
0,
1g!
14!
0h
19!
1i
0j
1k
0l
1m
0n
0o
#103000
0!
0O
0B!
1,
#104000
1!
1O
1B!
0,
#105000
0!
0O
0B!
1,
#106000
1$
1!
1J
1O
1B!
0,
11!
1L
#107000
0!
0O
0B!
1,
#108000
1!
1O
1B!
0,
12!
1M
1=!
0<!
03!
0L
1?!
1*!
1"!
1Y
1H
1A
1@
09
1[!
1\!
1]!
1_!
1^!
1+!
1e
15
14
13
#109000
0!
0O
0B!
1,
#110000
1!
1O
1B!
0,
0M
1@!
1A!
0?!
0*!
0"!
0p
0Z
0Y
0A
0@
0?
1B
1r!
1o!
1p!
1q!
0[
0q
1I!
1F!
1G!
1H!
1Q
0u
1V
07
0{
0!!
1T
1z
0X
16
1w
0W
08
1)
1&
1'
1(
0R
0w
18
1|
0)!
1!!
1X
1S
06
1}
0b
0T
1c
#111000
0!
0O
0B!
1,
#112000
1!
1O
1B!
0,
0@!
1E
0A!
0B
1F
#113000
0!
0O
0B!
1,
#114000
1!
1O
1B!
0,
1G
0E
1z!
1y!
1x!
1w!
1P!
1O!
1N!
1M!
1C!
0F
04!
0i
06!
1j
0k
08!
1l
09!
0m
0C!
1:!
1n
1o
#115000
0!
0O
0B!
1,
#116000
1!
1O
1B!
0,
1;!
0G
1?!
0=!
1<!
1"!
1d
1Z
1Y
1@
1?
0:!
0H
19
1[
0[!
0_!
0+!
0e
#117000
0!
0O
0B!
1,
#118000
1!
1O
1B!
0,
0;!
1@!
1A!
0?!
1=!
0<!
0"!
0d
0Z
0Y
0@
0?
1H
1B
09
0o!
0[
0F!
0!!
1b
1T
0&
0c
#119000
0!
0O
0B!
1,
#120000
1!
1O
1B!
0,
0@!
1E
0A!
0B
1F
#121000
0!
0O
0B!
1,
#122000
1!
1O
1B!
0,
1G
0E
0w!
0M!
1:!
0F
18!
#123000
0!
0O
0B!
1,
#124000
1!
1O
1B!
0,
1;!
0G
1?!
0=!
1<!
1Z
1Y
1U
1@
1?
0:!
0H
19
1[
0\!
05
#125000
0!
0O
0B!
1,
#126000
1!
1O
1B!
0,
0;!
1@!
1A!
0?!
1=!
0<!
0Z
0Y
0U
0@
0?
1H
1B
09
0p!
0[
0G!
0X
0S
16
0'
0T
#127000
0!
0O
0B!
1,
#128000
1!
1O
1B!
0,
0@!
1E
0A!
0B
1F
#129000
0!
0O
0B!
1,
#130000
1!
1O
1B!
0,
1G
0E
0x!
0N!
1:!
0F
#131000
0!
0O
0B!
1,
#132000
1!
1O
1B!
0,
1;!
0G
1?!
0=!
1<!
1Z
1@
1?
1>
0:!
0H
19
1[
0]!
04
#133000
0!
0O
0B!
1,
#134000
1!
1O
1B!
0,
0;!
1@!
1A!
0?!
1=!
0<!
0Z
0@
0?
0>
1H
1B
09
0q!
0[
0H!
1R
1w
08
0(
06
#135000
0!
0O
0B!
1,
#136000
1!
1O
1B!
0,
0@!
1E
0A!
0B
1F
#137000
0!
0O
0B!
1,
#138000
1!
1O
1B!
0,
1G
0E
0y!
0O!
1:!
0F
16!
#139000
0!
0O
0B!
1,
#140000
1!
1O
1B!
0,
1;!
0G
1?!
0=!
1<!
1x
1Z
1?
0:!
0H
19
1[
0^!
03
#141000
0!
0O
0B!
1,
#142000
1!
1O
1B!
0,
0;!
1@!
1A!
0?!
1=!
0<!
0x
0Z
0?
1H
1B
09
0r!
0[
0I!
0Q
1u
0V
17
0)
0w
1W
18
0z
1X
1{
1!!
0|
1)!
0}
#143000
0!
0O
0B!
1,
#144000
1!
1O
1B!
0,
0@!
1E
0A!
0B
1F
#145000
0!
0O
0B!
1,
#146000
1!
1O
1B!
0,
1G
0E
0z!
0P!
1:!
0F
14!
1i
19!
0j
1C!
0:!
1k
0l
1m
0n
0o
#147000
0!
0O
0B!
1,
#148000
1!
1O
1B!
0,
1D!
0G
0=!
1<!
00!
1:
0C!
0H
19
1+
1C!
1*
#149000
0!
0O
0B!
1,
#150000
1!
1O
1B!
0,
#151000
0!
0O
0B!
1,
#152000
1!
1O
1B!
0,
#153000
0!
0O
0B!
1,
#154000
1!
1O
1B!
0,
#155000
0!
0O
0B!
1,
#156000
1!
1O
1B!
0,
#157000
0!
0O
0B!
1,
#158000
1!
1O
1B!
0,
#159000
0!
0O
0B!
1,
#160000
1!
1O
1B!
0,
#161000
0!
0O
0B!
1,
#162000
1!
1O
1B!
0,
#163000
0!
0O
0B!
1,
#164000
1!
1O
1B!
0,
#165000
0!
0O
0B!
1,
#166000
1!
1O
1B!
0,
#167000
0!
0O
0B!
1,
#168000
1!
1O
1B!
0,
#169000
0!
0O
0B!
1,
#170000
1!
1O
1B!
0,
#171000
0!
0O
0B!
1,
#172000
1!
1O
1B!
0,
#173000
0!
0O
0B!
1,
#174000
1!
1O
1B!
0,
#175000
0!
0O
0B!
1,
#176000
1!
1O
1B!
0,
#177000
0!
0O
0B!
1,
#178000
1!
1O
1B!
0,
#179000
0!
0O
0B!
1,
#180000
1!
1O
1B!
0,
#181000
0!
0O
0B!
1,
#182000
1!
1O
1B!
0,
#183000
0!
0O
0B!
1,
#184000
1!
1O
1B!
0,
#185000
0!
0O
0B!
1,
#186000
1!
1O
1B!
0,
#187000
0!
0O
0B!
1,
#188000
1!
1O
1B!
0,
#189000
0!
0O
0B!
1,
#190000
1!
1O
1B!
0,
#191000
0!
0O
0B!
1,
#192000
1!
1O
1B!
0,
#193000
0!
0O
0B!
1,
#194000
1!
1O
1B!
0,
#195000
0!
0O
0B!
1,
#196000
0$
1!
0J
1O
1B!
0,
01!
0:
0C!
#197000
0!
0O
0B!
1,
#198000
1!
1O
1B!
0,
02!
0D!
13!
1p
1Z
1?
10!
1[
1q
0+
0*
#199000
0!
0O
0B!
1,
#200000
b11 "
b10 "
1!
0Y!
1X!
1O
1B!
0,
0g
1I
#201000
0!
0O
0B!
1,
#202000
1!
1O
1B!
0,
1f!
0g!
04!
1h
09!
#203000
0!
0O
0B!
1,
#204000
1!
1O
1B!
0,
#205000
0!
0O
0B!
1,
#206000
1$
1!
1J
1O
1B!
0,
11!
1L
#207000
0!
0O
0B!
1,
#208000
1!
1O
1B!
0,
12!
1M
1=!
0<!
03!
0L
1?!
1*!
1"!
1Y
1H
1A
1@
09
1[!
1\!
1]!
1_!
1^!
1+!
1e
15
14
13
#209000
0!
0O
0B!
1,
#210000
1!
1O
1B!
0,
0M
1@!
1A!
0?!
0*!
0"!
0p
0Z
0Y
0A
0@
0?
1B
1r!
1o!
1p!
1q!
0[
0q
1I!
1F!
1G!
1H!
1Q
0u
1V
07
0{
0!!
1T
1z
0X
16
1w
0W
08
1)
1&
1'
1(
0R
0w
18
1|
0)!
1!!
1X
1S
06
1}
0b
0T
1c
#211000
0!
0O
0B!
1,
#212000
1!
1O
1B!
0,
0@!
1E
0A!
0B
1F
#213000
0!
0O
0B!
1,
#214000
1!
1O
1B!
0,
1G
0E
1z!
1y!
1x!
1w!
1P!
1O!
1N!
1M!
1:!
0F
0i
06!
1j
0k
08!
1l
0m
1n
1o
#215000
0!
0O
0B!
1,
#216000
1!
1O
1B!
0,
1;!
0G
1?!
0=!
1<!
1"!
1d
1Z
1Y
1@
1?
0:!
0H
19
1[
0[!
0_!
0+!
0e
#217000
0!
0O
0B!
1,
#218000
1!
1O
1B!
0,
0;!
1@!
1A!
0?!
1=!
0<!
0"!
0d
0Z
0Y
0@
0?
1H
1B
09
0o!
0[
0F!
0!!
1b
1T
0&
0c
#219000
0!
0O
0B!
1,
#220000
1!
1O
1B!
0,
0@!
1E
0A!
0B
1F
#221000
0!
0O
0B!
1,
#222000
1!
1O
1B!
0,
1G
0E
0w!
0M!
1:!
0F
18!
#223000
0!
0O
0B!
1,
#224000
1!
1O
1B!
0,
1;!
0G
1?!
0=!
1<!
1Z
1Y
1U
1@
1?
0:!
0H
19
1[
0\!
05
#225000
0!
0O
0B!
1,
#226000
1!
1O
1B!
0,
0;!
1@!
1A!
0?!
1=!
0<!
0Z
0Y
0U
0@
0?
1H
1B
09
0p!
0[
0G!
0X
0S
16
0'
0T
#227000
0!
0O
0B!
1,
#228000
1!
1O
1B!
0,
0@!
1E
0A!
0B
1F
#229000
0!
0O
0B!
1,
#230000
1!
1O
1B!
0,
1G
0E
0x!
0N!
1:!
0F
#231000
0!
0O
0B!
1,
#232000
1!
1O
1B!
0,
1;!
0G
1?!
0=!
1<!
1Z
1@
1?
1>
0:!
0H
19
1[
0]!
04
#233000
0!
0O
0B!
1,
#234000
1!
1O
1B!
0,
0;!
1@!
1A!
0?!
1=!
0<!
0Z
0@
0?
0>
1H
1B
09
0q!
0[
0H!
1R
1w
08
0(
06
#235000
0!
0O
0B!
1,
#236000
1!
1O
1B!
0,
0@!
1E
0A!
0B
1F
#237000
0!
0O
0B!
1,
#238000
1!
1O
1B!
0,
1G
0E
0y!
0O!
1:!
0F
16!
#239000
0!
0O
0B!
1,
#240000
1!
1O
1B!
0,
1;!
0G
1?!
0=!
1<!
1x
1Z
1?
0:!
0H
19
1[
0^!
03
#241000
0!
0O
0B!
1,
#242000
1!
1O
1B!
0,
0;!
1@!
1A!
0?!
1=!
0<!
0x
0Z
0?
1H
1B
09
0r!
0[
0I!
0Q
1u
0V
17
0)
0w
1W
18
0z
1X
1{
1!!
0|
1)!
0}
#243000
0!
0O
0B!
1,
#244000
1!
1O
1B!
0,
0@!
1E
0A!
0B
1F
#245000
0!
0O
0B!
1,
#246000
1!
1O
1B!
0,
1G
0E
0z!
0P!
1:!
0F
1i
0j
1k
0l
1m
0n
0o
#247000
0!
0O
0B!
1,
#248000
1!
1O
1B!
0,
1;!
0G
1?!
0=!
1<!
1*!
1"!
1~
1v
1p
1Y
1A
1@
0:!
0H
19
1q
1m!
1#!
0y
0$!
1%!
0&!
1'!
1(!
1,!
1-!
0?!
1.!
#249000
0!
0O
0B!
1,
#250000
1!
1O
1B!
0,
0;!
1/!
0.!
0*!
0"!
0~
0v
0p
0Y
0A
0@
00!
1K
0q
1.!
1*
#251000
0!
0O
0B!
1,
#252000
1!
1O
1B!
0,
#253000
0!
0O
0B!
1,
#254000
1!
1O
1B!
0,
#255000
0!
0O
0B!
1,
#256000
1!
1O
1B!
0,
#257000
0!
0O
0B!
1,
#258000
1!
1O
1B!
0,
#259000
0!
0O
0B!
1,
#260000
1!
1O
1B!
0,
#261000
0!
0O
0B!
1,
#262000
1!
1O
1B!
0,
#263000
0!
0O
0B!
1,
#264000
1!
1O
1B!
0,
#265000
0!
0O
0B!
1,
#266000
1!
1O
1B!
0,
#267000
0!
0O
0B!
1,
#268000
1!
1O
1B!
0,
#269000
0!
0O
0B!
1,
#270000
1!
1O
1B!
0,
#271000
0!
0O
0B!
1,
#272000
1!
1O
1B!
0,
#273000
0!
0O
0B!
1,
#274000
1!
1O
1B!
0,
#275000
0!
0O
0B!
1,
#276000
1!
1O
1B!
0,
#277000
0!
0O
0B!
1,
#278000
1!
1O
1B!
0,
#279000
0!
0O
0B!
1,
#280000
1!
1O
1B!
0,
#281000
0!
0O
0B!
1,
#282000
1!
1O
1B!
0,
#283000
0!
0O
0B!
1,
#284000
1!
1O
1B!
0,
#285000
0!
0O
0B!
1,
#286000
1!
1O
1B!
0,
#287000
0!
0O
0B!
1,
#288000
1!
1O
1B!
0,
#289000
0!
0O
0B!
1,
#290000
1!
1O
1B!
0,
#291000
0!
0O
0B!
1,
#292000
1!
1O
1B!
0,
#293000
0!
0O
0B!
1,
#294000
1!
1O
1B!
0,
#295000
0!
0O
0B!
1,
#296000
0$
1!
0J
1O
1B!
0,
01!
0K
0.!
#297000
0!
0O
0B!
1,
#298000
1!
1O
1B!
0,
02!
0/!
13!
1p
1Z
1?
10!
1[
1q
0m!
0*
0#!
1y
1$!
0%!
1&!
0'!
0(!
0,!
0-!
#299000
0!
0O
0B!
1,
#300000
b11 "
1!
1Y!
1O
1B!
0,
1g
#301000
0!
0O
0B!
1,
#302000
1!
1O
1B!
0,
1g!
0h
#303000
0!
0O
0B!
1,
#304000
1!
1O
1B!
0,
#305000
0!
0O
0B!
1,
#306000
1$
1!
1J
1O
1B!
0,
11!
1L
#307000
0!
0O
0B!
1,
#308000
1!
1O
1B!
0,
12!
1M
1=!
0<!
03!
0L
1?!
1*!
1"!
1Y
1H
1A
1@
09
1[!
1\!
1]!
1_!
1^!
1+!
1e
15
14
13
#309000
0!
0O
0B!
1,
#310000
1!
1O
1B!
0,
0M
1@!
1A!
0?!
0*!
0"!
0p
0Z
0Y
0A
0@
0?
1B
1r!
1o!
1p!
1q!
0[
0q
1I!
1F!
1G!
1H!
1Q
0u
1V
07
0{
0!!
1T
1z
0X
16
1w
0W
08
1)
1&
1'
1(
0R
0w
18
1|
0)!
1!!
1X
1S
06
1}
0b
0T
1c
#311000
0!
0O
0B!
1,
#312000
1!
1O
1B!
0,
0@!
1E
0A!
0B
1F
#313000
0!
0O
0B!
1,
#314000
1!
1O
1B!
0,
1G
0E
1z!
1y!
1x!
1w!
1P!
1O!
1N!
1M!
1:!
0F
14!
06!
1j
0k
08!
1l
0m
1n
1o
#315000
0!
0O
0B!
1,
#316000
1!
1O
1B!
0,
1;!
0G
1?!
0=!
1<!
1"!
1d
1Z
1Y
1@
1?
0:!
0H
19
1[
0[!
0_!
0+!
0e
#317000
0!
0O
0B!
1,
#318000
1!
1O
1B!
0,
0;!
1@!
1A!
0?!
1=!
0<!
0"!
0d
0Z
0Y
0@
0?
1H
1B
09
0o!
0[
0F!
0!!
1b
1T
0&
0c
#319000
0!
0O
0B!
1,
#320000
1!
1O
1B!
0,
0@!
1E
0A!
0B
1F
#321000
0!
0O
0B!
1,
#322000
1!
1O
1B!
0,
1G
0E
0w!
0M!
1:!
0F
18!
#323000
0!
0O
0B!
1,
