Labs/Week 3/L2P21/simulation/qsim/L2P21.msim.vcd
$comment
	File created using the following command:
		vcd file L2P21.msim.vcd -direction
$end
$date
	Fri Oct 02 01:21:24 2020
$end
$version
	ModelSim Version 10.1d
$end
$timescale
	1ps
$end
$scope module L2P21_vlg_vec_tst $end
$var reg 4 ! V [3:0] $end
$var wire 1 " M [3] $end
$var wire 1 # M [2] $end
$var wire 1 $ M [1] $end
$var wire 1 % M [0] $end
$var wire 1 & z $end
$var wire 1 ' sampler $end
$scope module i1 $end
$var wire 1 ( gnd $end
$var wire 1 ) vcc $end
$var wire 1 * unknown $end
$var tri1 1 + devclrn $end
$var tri1 1 , devpor $end
$var tri1 1 - devoe $end
$var wire 1 . M[0]~output_o $end
$var wire 1 / M[1]~output_o $end
$var wire 1 0 M[2]~output_o $end
$var wire 1 1 M[3]~output_o $end
$var wire 1 2 z~output_o $end
$var wire 1 3 V[0]~input_o $end
$var wire 1 4 V[1]~input_o $end
$var wire 1 5 V[2]~input_o $end
$var wire 1 6 V[3]~input_o $end
$var wire 1 7 m1|f~0_combout $end
$var wire 1 8 m2|f~0_combout $end
$var wire 1 9 m3|f~0_combout $end
$var wire 1 : s~0_combout $end
$upscope $end
$upscope $end
$enddefinitions $end
#0
$dumpvars
b0 !
0%
0$
0#
0"
0&
x'
0(
1)
x*
1+
1,
1-
0.
0/
00
01
02
03
04
05
06
07
08
09
0:
$end
#10000
b1 !
0'
13
1.
1%
#20000
b11 !
b10 !
14
1'
03
0.
0%
17
1/
1$
#30000
b11 !
0'
13
1.
1%
#40000
b111 !
b101 !
b100 !
04
15
1'
03
0.
0%
18
07
10
0/
1#
0$
#50000
b101 !
0'
13
1.
1%
#60000
b111 !
b110 !
14
1'
03
0.
0%
17
1/
1$
#70000
b111 !
0'
13
1.
1%
#80000
b1111 !
b1011 !
b1001 !
b1000 !
04
05
16
1'
03
0.
0%
19
08
07
11
00
0/
1"
0#
0$
#90000
b1001 !
0'
13
1.
1%
#100000
b1011 !
b1010 !
14
1'
03
0.
0%
1:
09
12
01
1&
0"
#110000
b1011 !
0'
13
1.
1%
#120000
b1111 !
b1101 !
b1100 !
04
15
1'
03
0.
0%
17
1/
1$
#130000
b1101 !
0'
13
1.
1%
#140000
b1111 !
b1110 !
14
1'
03
0.
0%
18
07
10
0/
1#
0$
#150000
b1111 !
0'
13
1.
1%
